<?xml version="1.0" encoding="utf-8"?>
<!-- Generator: Adobe Illustrator 19.0.0, SVG Export Plug-In . SVG Version: 6.00 Build 0)  -->
<svg version="1.1" id="Layer_1" xmlns="http://www.w3.org/2000/svg" xmlns:xlink="http://www.w3.org/1999/xlink" x="0px" y="0px"
	 viewBox="0 0 142.1 146.7" style="enable-background:new 0 0 142.1 146.7;" xml:space="preserve">
<style type="text/css">
	.st0{fill:none;stroke:#ECE822;stroke-width:12;}
</style>
<path id="path4142" sodipodi:nodetypes="ccacc" inkscape:connector-curvature="0" class="st0" d="M131.8,11.2L20.5,61
	c0,0,36.1,6.1,48.8,17.8s21.7,47.2,21.7,47.2L131.8,11.2z"/>
</svg>
